{
  "name"    : "dicomheaderview",

  "include" :
  [
    {
      "path" : "${QOOXDOO_PATH}/tool/data/config/application.json"
    }
  ],

  "export" :
  [
    "api",
    "api-data",
    "build",
    "clean",
    "distclean",
    "fix",
    "info",
    "inspector",
    "lint",
    "migration",
    "pretty",
    "profiling",
    "source",
    "source-all",
    "source-hybrid",    
    "simulation-build",
    "simulation-run",
    "test",
    "test-source",
    "translation"
  ],

  "let" :
  {
    "APPLICATION"  : "dicomheaderview",
    "QOOXDOO_PATH" : "../",
    "QXTHEME"      : "dicomheaderview.theme.Theme",
    "API_EXCLUDE"  : ["qx.test.*", "${APPLICATION}.theme.*", "${APPLICATION}.test.*", "${APPLICATION}.simulation.*"],
    "LOCALES"      : [ "en" ],
    "CACHE"        : "${TMPDIR}/cache",
    "ROOT"         : ".",
    "OPTIMIZE"     : ["variables", "basecalls", "strings"]
  },

  "jobs" :
  {
    "libraries" : 
    {
      "library" :
      [
	{
	    "manifest" : "../csvparser/Manifest.json"
	},
	{
	    "manifest" : "../dicomtag/Manifest.json"
	}
      ]
     }
   ,
  "build-script" :
    {
      "compile-options" :
      {
        "paths" : {
	    "app-root" : "../../../xnat-templates/screens"
	    , "loader-template" : "./loader.tmpl.js"
	},
  	"uris" : {
  	  "add-nocache-param" : true,
          "script" : "../../../../scripts/qooxdoo/dicomheaderview/build/script",
	  "resource" : "../../../../scripts/qooxdoo/dicomheaderview/build/resource"
  	}
      }
    },
    "source-script" : {
      "compile-options" : {
        "paths" : {
	    "app-root" : "../../../xnat-templates/screens"
	    // , "loader-template" : "./loader.tmpl.js"
	},
        "uris" : {
  	  "add-nocache-param": false,
          "script" : "../../scripts/qooxdoo/dicomheaderview/source/script",
	  "resource" : "../../scripts/qooxdoo/dicomheaderview/source/resource"
  	}
      }
    },
    "source-all-script" : {
      "compile-options" : {
        "uris" : {
	  "add-nocache-param" : false
  	}
      }
    }
   }
}
